<?xml version="1.0" encoding="UTF-8"?>
<svg width="48px" height="48px" viewBox="0 0 48 48" version="1.1" xmlns="http://www.w3.org/2000/svg" xmlns:xlink="http://www.w3.org/1999/xlink">
    <!-- Generator: Sketch 50.2 (55047) - http://www.bohemiancoding.com/sketch -->
    <title>138_Xmarks</title>
    <desc>Created with Sketch.</desc>
    <defs></defs>
    <g id="138_Xmarks" stroke="none" stroke-width="1" fill="none" fill-rule="evenodd">
        <path d="M48,1.27368916 C47.9348057,1.96513382 47.9077439,2.66333927 47.7970365,3.34802314 C47.4077157,5.7702306 46.2944918,8.07811922 46.5189817,10.5919047 C46.6610561,12.1831493 46.9495103,13.7670186 47.261336,15.3373662 C47.5411795,16.7491425 47.4618393,17.193511 46.1948552,17.7933776 C41.4719567,20.0311999 36.7269167,22.2229258 31.9874122,24.426944 C30.9971964,24.8879071 29.9977551,25.3279732 28.8636198,25.8399496 C29.1360829,26.1669261 29.3261305,26.4103146 29.5309391,26.6401816 C32.3779631,29.8447971 35.2225269,33.0512564 38.0787765,36.2478819 C38.6999677,36.9436289 39.1175804,37.7887279 38.7067332,38.616003 C37.6765398,40.6866493 38.4613319,42.5305017 39.1723191,44.4210651 C39.4017293,45.0313802 39.5997724,45.6564462 39.758453,46.288273 C39.8131916,46.5046183 39.7043294,46.7615284 39.6705021,47 C39.4441671,46.8992027 39.1495626,46.8574087 39.0019528,46.6877743 C37.574443,45.0504334 36.1340174,43.4223117 34.7692418,41.7333429 C31.7210995,37.9595916 28.7215454,34.1465048 25.6844738,30.3641488 C25.0792736,29.6112424 24.7637577,28.8257613 24.8012752,27.8337687 C24.8646244,26.1693846 24.8400228,24.5000835 24.8068106,22.8332409 C24.784054,21.711564 25.1838306,20.7865647 26.0012198,20.0607015 C32.633205,14.1714369 39.2731858,8.29016225 45.9187019,2.41626305 C46.4623979,1.9362468 47.0706733,1.52875541 47.6488117,1.08684545 C47.7656694,1.14892181 47.8831422,1.2116128 48,1.27368916 Z M0.389320841,1 C0.818619336,1.28948483 1.28297516,1.53901952 1.67168096,1.87521528 C5.90316182,5.53403311 10.1407931,9.18670476 14.3396768,12.8836289 C16.7961498,15.0464678 19.1622119,17.3113331 21.6137646,19.4809328 C22.7891076,20.5208656 23.3850822,21.7052335 23.2872907,23.3081558 C23.1894992,24.9092344 23.3137374,26.5232198 23.2368573,28.1267568 C23.2091805,28.7124873 23.0265134,29.3996296 22.6697897,29.8446127 C18.2956194,35.2981135 13.8808563,40.7196543 9.45625266,46.1325904 C9.2022408,46.4435868 8.77417239,46.611992 8.42667432,46.8467759 C8.43897514,46.4349822 8.36271007,45.9955307 8.47956783,45.6163117 C8.88180453,44.3120934 9.41196972,43.0453668 9.76623323,41.7300854 C9.92491377,41.1388234 9.97350199,40.3816147 9.7385564,39.8468975 C8.97959602,38.1192077 9.30433758,36.7830293 10.5977684,35.4081301 C13.3500761,32.4843947 15.9732252,29.4383505 18.6480378,26.4414757 C18.8036431,26.2656951 18.9451025,26.0770076 19.1695924,25.8004297 C18.8257846,25.6092837 18.5404056,25.42244 18.2328852,25.2835364 C13.6305347,23.2036709 9.02080376,21.1404 4.42521872,19.0476275 C3.56108637,18.6542723 2.7480024,18.1490568 1.91154688,17.6966983 C0.658708722,17.0187752 0.532010312,16.638327 0.81431405,15.2449892 C1.11998934,13.7342594 1.37646136,12.2100081 1.56773906,10.6808398 C1.83774198,8.52599097 0.953928317,6.53647421 0.565222517,4.47566182 C0.359798882,3.38655965 0.18697241,2.29192593 0,1.19913606 C0.129773614,1.13275737 0.259547227,1.06637869 0.389320841,1 Z" id="Combined-Shape" fill="#4A90E2"></path>
    </g>
</svg>