<?xml version="1.0" encoding="UTF-8"?>
<svg width="48px" height="48px" viewBox="0 0 48 48" version="1.1" xmlns="http://www.w3.org/2000/svg" xmlns:xlink="http://www.w3.org/1999/xlink">
    <!-- Generator: Sketch 50.2 (55047) - http://www.bohemiancoding.com/sketch -->
    <title>168_Zoho</title>
    <desc>Created with Sketch.</desc>
    <defs>
        <linearGradient x1="49.996%" y1="1.431%" x2="49.996%" y2="96.981%" id="linearGradient-1">
            <stop stop-color="#FFE513" offset="0.562%"></stop>
            <stop stop-color="#FDB924" offset="100%"></stop>
        </linearGradient>
        <linearGradient x1="4.512%" y1="13.494%" x2="95.672%" y2="87.064%" id="linearGradient-2">
            <stop stop-color="#008CD2" offset="0.562%"></stop>
            <stop stop-color="#00649D" offset="100%"></stop>
        </linearGradient>
        <linearGradient x1="50.002%" y1="27.779%" x2="50.002%" y2="97.529%" id="linearGradient-3">
            <stop stop-color="#26A146" offset="0%"></stop>
            <stop stop-color="#008A52" offset="100%"></stop>
        </linearGradient>
        <linearGradient x1="43.734%" y1="8.208%" x2="57.544%" y2="93.198%" id="linearGradient-4">
            <stop stop-color="#D92231" offset="0%"></stop>
            <stop stop-color="#BA2234" offset="100%"></stop>
        </linearGradient>
    </defs>
    <g id="168_Zoho" stroke="none" stroke-width="1" fill="none" fill-rule="evenodd">
        <g id="zoho-1" transform="translate(0.000000, 16.000000)" fill-rule="nonzero">
            <polygon id="Shape" fill="#E79225" points="48 3.59723792 48 15.1809165 46.425 16.7457627 46.425 5.41016949"></polygon>
            <polygon id="Shape" fill="#FFF16D" points="37.678125 3.60677966 36.046875 5.41016949 36.13125 5.52467043 46.359375 5.48650345 46.453125 5.41016949 48 3.59723792 37.678125 3.60677966"></polygon>
            <polygon id="Shape" fill="url(#linearGradient-1)" points="36.046875 5.41016949 46.453125 5.41016949 46.453125 16.7553045 36.046875 16.7553045"></polygon>
            <path d="M44.86875,9.49403641 C44.6625,8.96924043 44.353125,8.49215317 43.95,8.08185813 C43.565625,7.68110483 43.134375,7.37576899 42.646875,7.17539234 C42.16875,6.97501569 41.653125,6.8700565 41.090625,6.8700565 C40.528125,6.8700565 40.003125,6.97501569 39.525,7.17539234 C39.0375,7.37576899 38.60625,7.68110483 38.221875,8.08185813 C37.81875,8.49215317 37.51875,8.96924043 37.3125,9.49403641 C37.10625,10.0188324 37.0125,10.5913371 37.0125,11.2210923 C37.0125,11.831764 37.115625,12.4042687 37.321875,12.9386064 C37.528125,13.4729441 37.828125,13.9500314 38.23125,14.3698682 C38.60625,14.7610797 39.0375,15.0568738 39.515625,15.2572505 C39.99375,15.4576271 40.528125,15.5625863 41.1,15.5625863 C41.653125,15.5625863 42.16875,15.4576271 42.646875,15.2572505 C43.125,15.0568738 43.565625,14.7610797 43.95,14.3698682 C44.353125,13.9500314 44.6625,13.4729441 44.86875,12.9481481 C45.075,12.4233522 45.178125,11.8413057 45.178125,11.230634 C45.178125,10.5913371 45.075,10.0188324 44.86875,9.49403641 Z M42.721875,13.2344005 C42.31875,13.7210295 41.784375,13.9691149 41.090625,13.9691149 C40.396875,13.9691149 39.853125,13.7210295 39.45,13.2344005 C39.046875,12.7477715 38.85,12.0703076 38.85,11.2115505 C38.85,10.33371 39.05625,9.65624608 39.45,9.16007533 C39.853125,8.66390458 40.3875,8.42536095 41.090625,8.42536095 C41.784375,8.42536095 42.31875,8.67344633 42.721875,9.16007533 C43.115625,9.65624608 43.321875,10.33371 43.321875,11.2115505 C43.321875,12.0703076 43.125,12.7477715 42.721875,13.2344005 Z" id="Shape" fill="#FFFFFF"></path>
            <g id="Group" transform="translate(24.093750, 2.576271)">
                <polygon id="Shape" fill="#009ADA" points="10.93125 0.0763339611 10.93125 0.133584432 12.2625 10.5436284 11.484375 12.7382298 11.38125 12.6618958 10.0125 2.68123038 10.040625 2.54764595 10.89375 0.133584432 10.93125 0.0763339611"></polygon>
                <polygon id="Shape" fill="#91C9ED" points="0.684375 1.52667922 10.93125 0.0763339611 10.06875 2.57627119 9.946875 2.70985562 0.365625 4.14111739 0.4125 2.35681105"></polygon>
                <polygon id="Shape" fill="url(#linearGradient-2)" points="10.06875 2.57627119 11.484375 12.7382298 1.3875 14.1790333 0.028125 4.36057753 0.61875 3.89303202"></polygon>
                <path d="M8.353125,4.52278719 C8.30625,4.2079096 8.203125,3.96936598 8.034375,3.80715631 C7.89375,3.68311362 7.725,3.61632141 7.528125,3.61632141 C7.48125,3.61632141 7.425,3.61632141 7.36875,3.62586315 C7.10625,3.66403013 6.909375,3.78807282 6.7875,3.98844947 C6.69375,4.13157564 6.65625,4.3128688 6.65625,4.52278719 C6.65625,4.59912116 6.665625,4.68499686 6.675,4.77087257 L7.040625,7.41393597 L4.134375,7.85285625 L3.76875,5.20979284 C3.721875,4.904457 3.61875,4.66591337 3.45,4.5037037 C3.309375,4.37011927 3.140625,4.30332706 2.953125,4.30332706 C2.90625,4.30332706 2.859375,4.30332706 2.8125,4.3128688 C2.540625,4.35103578 2.334375,4.47507847 2.203125,4.67545512 C2.109375,4.81858129 2.071875,4.99987445 2.071875,5.20979284 C2.071875,5.2861268 2.08125,5.37200251 2.090625,5.46741996 L3.084375,12.3470182 C3.13125,12.6618958 3.234375,12.9004394 3.421875,13.0626491 C3.5625,13.1866918 3.73125,13.2439422 3.9375,13.2439422 C3.99375,13.2439422 4.05,13.2439422 4.10625,13.2344005 C4.359375,13.1962335 4.546875,13.0721908 4.66875,12.8718142 C4.753125,12.728688 4.790625,12.5569366 4.790625,12.3565599 C4.790625,12.280226 4.78125,12.1943503 4.771875,12.1084746 L4.36875,9.38907721 L7.275,8.95015694 L7.678125,11.6695543 C7.725,11.9844319 7.828125,12.2229755 8.00625,12.3756434 C8.146875,12.4996861 8.315625,12.5664783 8.5125,12.5664783 C8.559375,12.5664783 8.615625,12.5664783 8.671875,12.5569366 C8.934375,12.5187696 9.13125,12.3947269 9.253125,12.1943503 C9.3375,12.0512241 9.384375,11.8794727 9.384375,11.6695543 C9.384375,11.5932203 9.375,11.5073446 9.365625,11.4214689 L8.353125,4.52278719 Z" id="Shape" fill="#FFFFFF"></path>
            </g>
            <g id="Group" transform="translate(11.531250, 0.000000)">
                <polygon id="Shape" fill="#66BF6B" points="3.65625 0 0.009375 8.8165725 0.50625 12.690521 0.534375 12.6809793 4.63125 3.30144382 4.6125 3.10106717 3.73125 0.124042687"></polygon>
                <polygon id="Shape" fill="#98D0A0" points="3.65625 0 4.603125 3.2346516 4.621875 3.30144382 13.640625 7.41393597 13.66875 7.39485248 12.9 4.30332706"></polygon>
                <polygon id="Shape" fill="url(#linearGradient-3)" points="4.603125 3.2346516 13.66875 7.39485248 9.571875 16.8507219 0.50625 12.690521"></polygon>
                <path d="M10.921875,8.15819209 C10.725,7.62385436 10.453125,7.1658506 10.096875,6.78418079 C9.740625,6.40251099 9.309375,6.09717514 8.803125,5.877715 C8.296875,5.65825487 7.790625,5.55329567 7.275,5.55329567 L7.246875,5.55329567 C6.721875,5.55329567 6.20625,5.67733836 5.7,5.90634024 C5.165625,6.14488387 4.70625,6.4693032 4.3125,6.89868173 C3.91875,7.31851852 3.6,7.83377276 3.35625,8.42536095 C3.1125,9.00740741 2.98125,9.59899561 2.953125,10.1810421 L2.953125,10.3814187 C2.953125,10.8966729 3.0375,11.4023854 3.215625,11.8985562 C3.403125,12.4233522 3.675,12.8718142 4.03125,13.253484 C4.3875,13.6351538 4.828125,13.9404896 5.353125,14.1599498 C5.85,14.3794099 6.35625,14.4843691 6.871875,14.4843691 L6.88125,14.4843691 C7.396875,14.4843691 7.9125,14.3698682 8.41875,14.150408 C8.953125,13.9118644 9.421875,13.5779033 9.815625,13.1485248 C10.209375,12.728688 10.5375,12.2229755 10.78125,11.6313873 C11.025,11.0397991 11.15625,10.4577527 11.184375,9.87570621 L11.184375,9.7039548 C11.19375,9.17915882 11.109375,8.66390458 10.921875,8.15819209 Z M9.1125,10.9062147 C8.775,11.7268048 8.315625,12.2897677 7.7625,12.5951036 C7.4625,12.7573132 7.153125,12.843189 6.84375,12.843189 C6.571875,12.843189 6.28125,12.7763967 5.990625,12.652354 C5.353125,12.3756434 4.959375,11.9367232 4.790625,11.306968 C4.734375,11.0970496 4.70625,10.8775895 4.70625,10.6485876 C4.70625,10.1905838 4.81875,9.68487131 5.04375,9.14099184 C5.390625,8.30131827 5.85,7.72881356 6.403125,7.41393597 C6.703125,7.24218456 7.0125,7.1658506 7.321875,7.1658506 C7.603125,7.1658506 7.884375,7.23264281 8.184375,7.3566855 C8.8125,7.63339611 9.20625,8.07231638 9.375,8.70207156 C9.43125,8.90244821 9.459375,9.12190835 9.459375,9.35091023 C9.459375,9.82799749 9.346875,10.3432517 9.1125,10.9062147 Z" id="Shape" fill="#FFFFFF"></path>
            </g>
            <g id="Group" transform="translate(0.000000, 1.431262)">
                <polygon id="Shape" fill="#760D16" points="10.81875 0.0667922159 12.3 10.1619586 11.625 13.7114878 11.53125 13.5874451 10.0875 3.83578154 10.0875 3.64494664 10.725 0.238543628"></polygon>
                <polygon id="Shape" fill="#EF463E" points="0 5.2861268 0.703125 1.71751412 10.81875 0.0667922159 10.134375 3.70219711 10.134375 3.94074074 0.121875 5.38154426"></polygon>
                <polygon id="Shape" fill="url(#linearGradient-4)" points="10.134375 3.70219711 11.625 13.7114878 1.6125 15.3049592 0 5.2861268"></polygon>
                <path d="M9.05625,12.1180163 C8.98125,12.0225989 8.86875,11.9558067 8.7375,11.9080979 C8.60625,11.8603892 8.446875,11.8413057 8.25,11.8413057 C8.071875,11.8413057 7.865625,11.8603892 7.640625,11.8985562 L4.996875,12.3565599 C5.025,12.1466416 5.128125,11.8794727 5.30625,11.5455116 C5.503125,11.1733836 5.803125,10.7249215 6.1875,10.2096673 C6.31875,10.0283741 6.421875,9.8947897 6.496875,9.79937225 C6.54375,9.73258004 6.61875,9.64670433 6.7125,9.52266164 C7.321875,8.71161331 7.6875,8.05323289 7.8375,7.53797866 C7.921875,7.24218456 7.96875,6.94639046 7.9875,6.65059636 C7.996875,6.56472065 7.996875,6.48838669 7.996875,6.41205273 C7.996875,6.20213434 7.978125,5.99221594 7.940625,5.78229755 C7.9125,5.59146265 7.865625,5.43879473 7.8,5.31475204 C7.734375,5.19070935 7.659375,5.0952919 7.565625,5.03804143 C7.4625,4.97124922 7.303125,4.94262398 7.10625,4.94262398 C6.946875,4.94262398 6.75,4.96170747 6.515625,4.99987445 L3.459375,5.53421218 C3.09375,5.60100439 2.8125,5.70596359 2.64375,5.877715 C2.503125,6.01129944 2.4375,6.18305085 2.4375,6.37388575 C2.4375,6.42159448 2.4375,6.47884495 2.446875,6.53609542 C2.49375,6.80326428 2.625,6.99409918 2.840625,7.08951664 C2.971875,7.14676711 3.121875,7.17539234 3.309375,7.17539234 C3.43125,7.17539234 3.571875,7.1658506 3.721875,7.13722536 L6.271875,6.67922159 C6.271875,6.72693032 6.28125,6.77463905 6.28125,6.81280603 C6.28125,6.97501569 6.253125,7.13722536 6.196875,7.28989328 C6.121875,7.50935342 5.934375,7.81468927 5.625,8.20590082 C5.540625,8.31086001 5.409375,8.48261142 5.23125,8.70207156 C4.5375,9.55128688 4.05,10.2764595 3.75,10.8775895 C3.534375,11.2974262 3.39375,11.6981795 3.309375,12.1084746 C3.2625,12.3470182 3.234375,12.5664783 3.234375,12.7859385 C3.234375,12.9386064 3.24375,13.0912743 3.271875,13.2344005 C3.309375,13.4443189 3.35625,13.6160703 3.421875,13.7496547 C3.4875,13.8832392 3.58125,13.9881984 3.684375,14.0454488 C3.7875,14.1026993 3.928125,14.1217828 4.134375,14.1217828 C4.3875,14.1217828 4.734375,14.0836158 5.175,14.0072819 L7.95,13.5206529 C8.4375,13.4347772 8.784375,13.3107345 8.98125,13.1485248 C9.140625,13.0149404 9.225,12.8336472 9.225,12.6237288 C9.225,12.5664783 9.215625,12.5092279 9.20625,12.4519774 C9.1875,12.3279347 9.140625,12.2134338 9.05625,12.1180163 Z" id="Shape" fill="#FFFFFF"></path>
            </g>
        </g>
    </g>
</svg>