<?xml version="1.0" encoding="UTF-8"?>
<svg width="48px" height="48px" viewBox="0 0 48 48" version="1.1" xmlns="http://www.w3.org/2000/svg" xmlns:xlink="http://www.w3.org/1999/xlink">
    <!-- Generator: Sketch 50.2 (55047) - http://www.bohemiancoding.com/sketch -->
    <title>021_Apple ITunes</title>
    <desc>Created with Sketch.</desc>
    <defs>
        <linearGradient x1="25.2887241%" y1="10.8627669%" x2="82.1739678%" y2="84.6960314%" id="linearGradient-1">
            <stop stop-color="#FF5E50" offset="0%"></stop>
            <stop stop-color="#FE5C6C" offset="24.903756%"></stop>
            <stop stop-color="#E3658A" offset="37.651777%"></stop>
            <stop stop-color="#B87EB0" offset="49.695423%"></stop>
            <stop stop-color="#916CFF" offset="62.6674%"></stop>
            <stop stop-color="#70BCFB" stop-opacity="0.9191919" offset="76.279801%"></stop>
            <stop stop-color="#21C7FE" offset="100%"></stop>
        </linearGradient>
    </defs>
    <g id="021_Apple-ITunes" stroke="none" stroke-width="1" fill="none" fill-rule="evenodd">
        <circle id="Oval-3" fill="#FFFFFF" cx="24" cy="24" r="23"></circle>
        <path d="M24,48 C10.745166,48 0,37.254834 0,24 C0,10.745166 10.745166,0 24,0 C37.254834,0 48,10.745166 48,24 C48,37.254834 37.254834,48 24,48 Z M23.9519543,46.0558372 C36.1606508,46.0558372 46.0577548,36.1591625 46.0577548,23.9509955 C46.0577548,11.7428286 36.1606508,1.84615385 23.9519543,1.84615385 C11.7432578,1.84615385 1.84615385,11.7428286 1.84615385,23.9509955 C1.84615385,36.1591625 11.7432578,46.0558372 23.9519543,46.0558372 Z M32.7480087,8.79332606 C33.1995321,8.79291049 33.5311573,9.04629032 33.6601517,9.49068854 C33.7050886,9.64550534 33.7161081,12.4811559 33.7045575,20.7835216 L33.6892704,31.8696221 L33.5727956,32.2830897 C33.1774504,33.6891609 32.2119563,34.684515 30.8443727,35.0951053 C29.8779189,35.3852715 28.4656182,35.4929734 27.7719875,35.3295002 C27.1545798,35.183995 26.7070911,34.9259857 26.2174125,34.4334119 C25.5051514,33.7169552 25.1893295,32.9850128 25.1877026,32.0483296 C25.1869982,31.5244002 25.2797997,31.1299536 25.528027,30.6037414 C25.8790057,29.8597253 26.3332294,29.4117975 27.1510297,29.0030092 C27.8058659,28.6756846 28.3912477,28.5059947 30.1014834,28.1487773 C31.2255006,27.914006 31.4992312,27.8132997 31.7182989,27.552961 C32.0195493,27.1949628 32.012913,27.3279377 31.9974731,21.6552259 C31.9840906,16.7267324 31.9786564,16.4559266 31.8890062,16.3190912 C31.756061,16.1162326 31.4789814,16.0115368 31.1861544,16.0533945 C30.8750978,16.0978373 19.815669,18.3354383 19.5397672,18.4097231 C19.2331627,18.4922836 19.0112158,18.7360797 18.939922,19.068505 C18.8978718,19.2646444 18.8812374,21.4393059 18.880956,26.7940889 C18.8805963,35.0183453 18.8872941,34.8318297 18.5584662,35.7058428 C18.4646329,35.9551738 18.2964148,36.29889 18.1846555,36.4694483 C17.9021613,36.9005354 17.3591357,37.4251021 16.9369192,37.6749101 C15.9269568,38.2724632 13.952166,38.5798297 12.8974278,38.3034833 C11.7799038,38.0106896 10.9497976,37.2499167 10.5755757,36.1764533 C10.3962619,35.6620949 10.3540578,34.8157159 10.4798479,34.2503363 C10.6114982,33.6586421 10.9161074,33.0949621 11.3272021,32.6819977 C12.0512824,31.9546097 12.9071463,31.616484 15.2116364,31.1471445 C15.7091057,31.0458289 16.2222066,30.9280416 16.3519973,30.8854528 C16.6258351,30.7955885 16.9228291,30.5133628 17.0566698,30.2157518 C17.1446433,30.0201255 17.1512375,29.5424393 17.1756925,21.3261979 L17.2015354,12.6433789 L17.3223781,12.3980645 C17.4650584,12.1083491 17.7658451,11.8355315 18.0692726,11.7207201 C18.2653429,11.6465341 29.7508607,9.30547538 31.6993722,8.94255287 C32.1399917,8.86047841 32.6118432,8.79345278 32.7480087,8.79332606 Z" id="Combined-Shape" fill="url(#linearGradient-1)"></path>
    </g>
</svg>