<?xml version="1.0" encoding="UTF-8"?>
<svg width="48px" height="48px" viewBox="0 0 48 48" version="1.1" xmlns="http://www.w3.org/2000/svg" xmlns:xlink="http://www.w3.org/1999/xlink">
    <!-- Generator: Sketch 50.2 (55047) - http://www.bohemiancoding.com/sketch -->
    <title>233_Apple iTunes Radio</title>
    <desc>Created with Sketch.</desc>
    <defs></defs>
    <g id="233_Apple-iTunes-Radio" stroke="none" stroke-width="1" fill="none" fill-rule="evenodd">
        <g id="Group" transform="translate(0.000000, 3.000000)" fill="#FF2E55">
            <path d="M6.22112672,0.406592719 L4.41757953,0.0224933736 C3.86804717,-0.0945110472 3.32812412,0.256502215 3.21131096,0.806934324 C3.0941975,1.35736643 3.44493728,1.8981735 3.99446964,2.01517792 L5.79801683,2.39927726 L6.22112672,0.406592719 Z M44.279696,8.4 L7.04332322,0.639699213 C7.04332322,0.639699213 6.97755951,0.94920448 6.86074635,1.49963659 L6.82110795,1.68822726 C6.70399449,2.23835859 6.62051362,2.63238376 6.62051362,2.63238376 L34.4376615,8.4 L44.279696,8.4 Z M13.6950671,14.9383012 C13.0212143,14.9383012 12.4746849,15.4854247 12.4746849,16.1606815 C12.4746849,16.8353368 13.0212143,17.3827611 13.6950671,17.3827611 C14.3689199,17.3827611 14.9154493,16.8353368 14.9154493,16.1606815 C14.9154493,15.4851239 14.3689199,14.9383012 13.6950671,14.9383012 Z M24.9040258,14.9383012 C24.2307736,14.9383012 23.6839438,15.4854247 23.6839438,16.1606815 C23.6839438,16.8353368 24.2307736,17.3827611 24.9040258,17.3827611 C25.5781789,17.3827611 26.1247083,16.8353368 26.1247083,16.1606815 C26.1247083,15.4854247 25.5781789,14.9383012 24.9040258,14.9383012 Z M24.9040258,34.3144137 C24.2304733,34.3144137 23.6839438,34.8615372 23.6839438,35.5367941 C23.6839438,36.2114494 24.2304733,36.7591745 24.9040258,36.7591745 C25.5778786,36.7591745 26.1247083,36.2114494 26.1247083,35.5367941 C26.1247083,34.8615372 25.5778786,34.3144137 24.9040258,34.3144137 Z M13.6950671,34.3144137 C13.0212143,34.3144137 12.4746849,34.8615372 12.4746849,35.5367941 C12.4746849,36.2114494 13.0212143,36.7591745 13.6950671,36.7591745 C14.3689199,36.7591745 14.9154493,36.2114494 14.9154493,35.5367941 C14.9154493,34.8615372 14.3689199,34.3144137 13.6950671,34.3144137 Z M24.1355813,27.43311 C23.4617285,27.43311 22.9154994,27.9799327 22.9154994,28.6551896 C22.9154994,29.3301457 23.4617285,29.87757 24.1355813,29.87757 C24.8097344,29.87757 25.3559636,29.3301457 25.3559636,28.6551896 C25.3559636,27.9799327 24.8097344,27.43311 24.1355813,27.43311 Z M14.4635115,27.43311 C13.7896587,27.43311 13.2431293,27.9802335 13.2431293,28.6554904 C13.2431293,29.3304465 13.7896587,29.8778708 14.4635115,29.8778708 C15.1373643,29.8778708 15.6838938,29.3304465 15.6838938,28.6554904 C15.6838938,27.9802335 15.1373643,27.43311 14.4635115,27.43311 Z M24.1355813,21.954957 C23.4617285,21.954957 22.9154994,22.5020805 22.9154994,23.1773374 C22.9154994,23.8519927 23.4617285,24.3997178 24.1355813,24.3997178 C24.8097344,24.3997178 25.3559636,23.8519927 25.3559636,23.1773374 C25.3559636,22.5020805 24.8097344,21.954957 24.1355813,21.954957 Z M14.4635115,21.954957 C13.7896587,21.954957 13.2431293,22.5020805 13.2431293,23.1773374 C13.2431293,23.8519927 13.7896587,24.3997178 14.4635115,24.3997178 C15.1373643,24.3997178 15.6838938,23.8519927 15.6838938,23.1773374 C15.6838938,22.5020805 15.1373643,21.954957 14.4635115,21.954957 Z M29.0171103,30.2851304 C28.3429572,30.2851304 27.7967281,30.8322539 27.7967281,31.5075107 C27.7967281,32.1821661 28.3429572,32.7298911 29.0171103,32.7298911 C29.6909631,32.7298911 30.2374926,32.1821661 30.2374926,31.5075107 C30.2374926,30.8322539 29.6909631,30.2851304 29.0171103,30.2851304 Z M9.62732647,30.2854312 C8.95347368,30.2854312 8.40694423,30.8325547 8.40694423,31.5078115 C8.40694423,32.1824668 8.95347368,32.7301919 9.62732647,32.7301919 C10.3011793,32.7301919 10.8477087,32.1824668 10.8477087,31.5078115 C10.8477087,30.8325547 10.3011793,30.2854312 9.62732647,30.2854312 Z M9.62732647,19.1029367 C8.95347368,19.1029367 8.40694423,19.6500602 8.40694423,20.325317 C8.40694423,20.9999724 8.95347368,21.5476974 9.62732647,21.5476974 C10.3011793,21.5476974 10.8477087,20.9999724 10.8477087,20.325317 C10.8477087,19.6497594 10.3011793,19.1029367 9.62732647,19.1029367 Z M29.0171103,19.1029367 C28.3429572,19.1029367 27.7967281,19.6500602 27.7967281,20.325317 C27.7967281,20.9999724 28.3429572,21.5476974 29.0171103,21.5476974 C29.6909631,21.5476974 30.2374926,20.9999724 30.2374926,20.325317 C30.2374926,19.6500602 29.6909631,19.1029367 29.0171103,19.1029367 Z M19.2996966,13.3534778 C18.6258438,13.3534778 18.0793143,13.9006013 18.0793143,14.5758582 C18.0793143,15.2508143 18.6258438,15.7982385 19.2996966,15.7982385 C19.9735494,15.7982385 20.5200788,15.2508143 20.5200788,14.5758582 C20.5200788,13.9003005 19.9735494,13.3534778 19.2996966,13.3534778 Z M19.2996966,19.1032374 C18.6258438,19.1032374 18.0793143,19.6503609 18.0793143,20.3256178 C18.0793143,21.0002731 18.6258438,21.5479982 19.2996966,21.5479982 C19.9735494,21.5479982 20.5200788,21.0002731 20.5200788,20.3256178 C20.5200788,19.6500602 19.9735494,19.1032374 19.2996966,19.1032374 Z M19.2996966,35.8084008 C18.6258438,35.8084008 18.0793143,36.3555243 18.0793143,37.0307811 C18.0793143,37.7054364 18.6258438,38.2531615 19.2996966,38.2531615 C19.9735494,38.2531615 20.5200788,37.7054364 20.5200788,37.0307811 C20.5200788,36.3555243 19.9735494,35.8084008 19.2996966,35.8084008 Z M19.2996966,30.2854312 C18.6258438,30.2854312 18.0793143,30.8325547 18.0793143,31.5078115 C18.0793143,32.1824668 18.6258438,32.7301919 19.2996966,32.7301919 C19.9735494,32.7301919 20.5200788,32.1824668 20.5200788,31.5078115 C20.5200788,30.8325547 19.9735494,30.2854312 19.2996966,30.2854312 Z M8.0907379,24.6713244 C7.41658482,24.6713244 6.87035566,25.2184479 6.87035566,25.8937048 C6.87035566,26.5683601 7.41658482,27.1160852 8.0907379,27.1160852 C8.7645907,27.1160852 9.31112015,26.5683601 9.31112015,25.8937048 C9.31112015,25.2184479 8.7645907,24.6713244 8.0907379,24.6713244 Z M30.508355,24.6713244 C29.8348025,24.6713244 29.288273,25.2184479 29.288273,25.8937048 C29.288273,26.5683601 29.8348025,27.1160852 30.508355,27.1160852 C31.1828083,27.1160852 31.7290375,26.5683601 31.7290375,25.8937048 C31.7290375,25.2184479 31.1828083,24.6713244 30.508355,24.6713244 Z M19.2996966,24.6716252 C18.6258438,24.6716252 18.0793143,25.2187487 18.0793143,25.8940056 C18.0793143,26.5686609 18.6258438,27.116386 19.2996966,27.116386 C19.9735494,27.116386 20.5200788,26.5686609 20.5200788,25.8940056 C20.5200788,25.2187487 19.9735494,24.6716252 19.2996966,24.6716252 Z M39.7741312,21.954957 C38.4261253,21.954957 37.333667,23.0495048 37.333667,24.3997178 C37.333667,25.7499307 38.4261253,26.8441777 39.7741312,26.8441777 C41.1221371,26.8441777 42.2148957,25.7499307 42.2148957,24.3997178 C42.2148957,23.0495048 41.1218368,21.954957 39.7741312,21.954957 Z M39.7741312,13.3985952 C38.4261253,13.3985952 37.333667,14.493143 37.333667,15.8433559 C37.333667,17.1935689 38.4261253,18.2881167 39.7741312,18.2881167 C41.1221371,18.2881167 42.2148957,17.1935689 42.2148957,15.8433559 C42.2148957,14.493143 41.1218368,13.3985952 39.7741312,13.3985952 Z M48,38.3815605 C48,40.3801022 46.3003535,42 44.2034221,42 L3.79657793,42 C1.69994682,42 0,40.3801022 0,38.3815605 L0,12.0184395 C0,10.0198978 1.69994682,8.4 3.79657793,8.4 L44.2034221,8.4 C46.3003535,8.4 48,10.0198978 48,12.0184395 L48,38.3815605 Z" id="Fill-1"></path>
        </g>
    </g>
</svg>