<?xml version="1.0" encoding="UTF-8"?>
<svg width="48px" height="48px" viewBox="0 0 48 48" version="1.1" xmlns="http://www.w3.org/2000/svg" xmlns:xlink="http://www.w3.org/1999/xlink">
    <!-- Generator: Sketch 50.2 (55047) - http://www.bohemiancoding.com/sketch -->
    <title>067_Yahoo</title>
    <desc>Created with Sketch.</desc>
    <defs></defs>
    <g id="067_Yahoo" stroke="none" stroke-width="1" fill="none" fill-rule="evenodd">
        <g id="Group" transform="translate(0.000000, 7.000000)" fill="#6B0094" fill-rule="nonzero">
            <path d="M17.8819757,0.000243490118 C28.0194185,0.000243490118 35.7639513,7.5764385 35.7639513,17.4986608 C35.7639513,27.4208831 28.0194185,35 17.8819757,35 C7.74453284,35 0,27.4206396 0,17.4986608 C0,7.5764385 7.74453284,0 17.8819757,0 L17.8819757,0.000243490118 Z M17.1139109,11.4980903 C17.1548936,10.890826 17.1987693,10.286727 17.2838687,9.68238453 L3.68025022,9.68238453 L3.68025022,11.4980903 C5.04666305,11.5837989 6.37522712,11.7143096 7.74477392,11.8000181 C10.3105346,14.9544326 12.8762954,18.108847 15.4861728,21.3046548 L15.4861728,26.1885796 C14.0317676,26.3188468 12.5773624,26.4045554 11.1227162,26.5350661 L11.1227162,28.1313873 L24.5563768,28.1313873 L24.5563768,26.5350661 C23.1017305,26.4461922 21.6473253,26.4047988 20.1929202,26.3604836 C20.2367958,24.6336517 20.2777785,22.8625046 20.3218953,21.1327508 C22.8435393,18.8846066 25.3275756,16.6398712 27.8084779,14.3917269 C29.0897913,14.3057749 30.3739975,14.2200664 31.6994276,14.0897992 L31.6994276,11.9719221 C27.8933363,12.0162373 24.1279866,12.0578741 20.3218953,12.1435826 L20.3218953,13.9178951 C21.7321837,14.0036037 23.1458473,14.0452405 24.5563768,14.0895557 C22.7176981,15.6890422 20.8761266,17.2439701 19.0374479,18.8432132 C17.1546525,16.5093605 15.2723393,14.1341144 13.3895439,11.8000181 C14.6301156,11.6697509 15.8702052,11.5837989 17.1136698,11.4980903 L17.1139109,11.4980903 Z M47.9997816,3.48166511 L48,3.48166511 C46.2175063,10.9561112 44.4328291,18.4332039 42.6503354,25.947349 C41.1790084,25.7892146 39.6675027,25.6335061 38.1961757,25.4777977 C38.3501213,18.0009255 38.504067,10.4865598 38.6608513,3.0096877 C41.7605079,3.16804274 44.860383,3.32353062 47.9997816,3.48166511 Z M37.7684035,33.5770625 C37.6144578,31.9352868 37.4574552,30.290644 37.3035096,28.6087282 C39.2425692,28.7642161 41.1790084,28.9199246 43.1152293,29.0778385 L43.1152293,33.5770625 L37.7684035,33.5770625 Z" id="Combined-Shape"></path>
        </g>
    </g>
</svg>