<?xml version="1.0" encoding="UTF-8"?>
<svg width="48px" height="48px" viewBox="0 0 48 48" version="1.1" xmlns="http://www.w3.org/2000/svg" xmlns:xlink="http://www.w3.org/1999/xlink">
    <!-- Generator: Sketch 50.2 (55047) - http://www.bohemiancoding.com/sketch -->
    <title>257_SpiderOak</title>
    <desc>Created with Sketch.</desc>
    <defs></defs>
    <g id="257_SpiderOak" stroke="none" stroke-width="1" fill="none" fill-rule="evenodd">
        <g id="Group" transform="translate(7.000000, 0.000000)" fill="#646464">
            <path d="M9.81173275,20.0700666 C9.38535304,19.6998255 8.72856276,19.5788249 8.17776667,19.3432874 C8.2965763,19.9069226 8.25813004,20.5713916 8.56249627,21.0155775 C9.66729229,22.6268502 10.9269413,24.1385819 12.0368101,25.7472691 C12.212363,26.0016831 12.3513444,26.336141 12.4188205,26.671482 C12.4693579,26.9226411 12.4605634,27.2087799 12.3672633,27.7328748 C11.5846675,32.1289521 9.43992358,43.6823093 9.0791179,45.8680111 L23.3009114,45.8680111 C23.1492622,45.2679206 21.3185361,38.9051357 20.9804666,33.8487389 C20.642397,28.792342 21.2492283,27.914162 23.7610507,25.470881 C24.0376502,25.2019908 23.9022873,24.5362291 23.9580878,24.0542951 C23.5050093,24.1918428 22.9945284,24.2451037 22.6124687,24.4878806 C22.0995849,24.8136513 21.6902924,25.2909314 21.2281363,25.6945252 C20.8054944,26.0634736 20.371906,26.4207873 19.9433904,26.7835305 C20.9072168,24.3224097 20.349479,21.9675522 19.6563784,19.8024691 C18.8148325,17.1748433 18.9638117,15.1175748 21.3990086,13.4437334 C21.6619917,13.2630082 21.609929,12.6518001 21.7041758,12.2404499 C21.2412187,12.2981061 20.6925585,12.2223515 20.3331928,12.4400491 C19.5228844,12.9310323 18.8062889,13.5673195 18.2934051,13.9597957 C17.6005714,12.4506496 16.9811594,10.9823541 16.2445397,9.57171482 C16.0264106,9.15390085 15.4774834,8.89819663 15.0802054,8.56803051 C14.9200127,9.04350074 14.6271269,9.51741969 14.6215202,9.99444121 C14.580137,13.6386788 14.5945544,17.283175 14.5918845,20.9276711 C14.5910835,22.0448581 14.5918845,23.1620451 14.5918845,24.4509082 C13.0289372,23.0061405 11.4569123,21.4982871 9.81173275,20.0700666 Z M5.95988183,48 C6.62700352,45.043058 7.10207234,42.4709456 7.53646168,39.7623942 C7.98660332,36.9574042 8.48854061,34.1578437 9.0791179,31.3781915 C9.2780239,30.4414711 8.99474971,30.0161593 8.20606739,29.5419818 C1.67954764,25.6172193 -1.22074215,19.0079504 0.475966092,12.0566221 C2.29602275,4.59983194 8.43728732,0 16.1662256,0 C26.2213444,0 31.7098151,6.12862776 32.8204849,13.3496219 C33.8411797,19.9857798 30.73878,26.2553164 24.6933725,29.6079116 C23.7490363,30.1317303 23.3878414,30.7384825 23.4201071,31.7616185 C23.5794989,36.8158787 24.8546332,41.7935492 26.2213444,46.6938142 C26.3337463,47.0987008 26.4440123,47.5041045 26.5801762,48 L5.95988183,48 Z" id="Fill-4"></path>
        </g>
    </g>
</svg>