<?xml version="1.0" encoding="UTF-8"?>
<svg width="48px" height="48px" viewBox="0 0 48 48" version="1.1" xmlns="http://www.w3.org/2000/svg" xmlns:xlink="http://www.w3.org/1999/xlink">
    <!-- Generator: Sketch 50.2 (55047) - http://www.bohemiancoding.com/sketch -->
    <title>161_Microsoft MSN Messenger</title>
    <desc>Created with Sketch.</desc>
    <defs></defs>
    <g id="161_Microsoft-MSN-Messenger" stroke="none" stroke-width="1" fill="none" fill-rule="evenodd">
        <g id="Group" transform="translate(0.000000, 2.000000)">
            <path d="M0.888888889,13.3333333 C4.28145391,20.8733413 8.25825862,27.3269193 14.3564298,32.1055505 C19.2362395,28.9344545 16.5999185,27.0129132 16.8888889,24.8888889 C18.2747585,22.580592 18.607898,20.4349371 21.3333333,19.5555556 L21.3333333,17.7777778 C16.2994258,13.2242565 10.9134663,9.89336686 4.44444444,8 C3.53078681,7.89240635 1.98600715,7.82886836 0.888888889,8.88888889 C0.236459809,10.0087302 -0.113052371,10.8918748 0.888888889,13.3333333 Z" id="_391043472" fill="#00A3E1"></path>
            <path d="M35.0002019,18.6666667 C39.5832792,19.668379 42.3354516,21.6369872 45.3333333,24 C48.4683439,15.748966 48.9182846,8.78335291 46.2222222,3.55555556 C45.7084146,2.36457415 44.954191,1.52642819 44.4444444,0.888888889 C42.4553319,-0.398634925 40.5941335,0.0592730139 38.2222222,0.888888889 C30.5980954,3.55555556 24.5582012,11.0476313 22.7811906,17.499757 L24,18.6666667 C27.8429886,17.7524307 30.947607,18.1835528 35.0002019,18.6666667 Z" id="_391042488" fill="#EC613F"></path>
            <path d="M20.4444444,19.5555556 C18.048632,20.2759873 16.1955809,21.7445966 15.1111111,24 C14.1518088,26.0934956 13.9607774,28.5868595 14.2222222,32 L16.8888889,32.8888889 C18.8698447,33.7418583 21.0045642,34.1041033 23.1111111,33.7777778 L25.5302729,31.2997832 L21.3333333,20.4444444 L20.4444444,19.5555556 Z" id="_391042248" fill="#00AB58"></path>
            <path d="M24.8888889,43.5555556 C26.3776731,44.2746796 27.4199554,43.6162385 28.4444444,42.6666667 C29.9518334,41.2695076 29.3333333,38.5147559 29.3333333,35.5555556 C27.9984531,34.688639 26.2263779,32.561285 25.3408378,30.6220617 C22.465551,33.3900422 18.5776708,33.3900422 14.3787625,31.9851719 C17.6164555,37.8782015 21.119831,41.7349961 24.8888889,43.5555556 Z" id="_391042224" fill="#75C05B"></path>
            <path d="M39.1111111,40.8888889 C41.5931099,39.2128051 43.1915046,36.6291935 44.4444444,33.7777778 C45.4529256,30.4354455 45.6237933,27.2785263 45.3333333,24 C43.1129606,26.8919104 40.0171333,28.7647688 36.0458512,29.6185751 C33.5334199,29.5212102 30.9298074,29.9780278 28.2274891,28.8301828 L29.3333333,36.4444444 C30.8159455,38.4037134 32.8371032,40.6504719 35.5555556,41.7777778 C36.1777097,42.0357768 37.4127626,42.0357768 39.1111111,40.8888889 Z" id="_391042680" fill="#FFCC35"></path>
            <path d="M26.9281046,28.437336 L26.9281046,29.2233732 C30.1528746,30.5278404 33.1197778,31.0095836 36.3398693,30.7954476 C39.4056811,30.3252734 43.4907085,28.3549381 45.2536281,24.0064766 C43.5965832,20.2455487 39.1498435,18.878156 34.4367479,17.8691475 C30.0145683,17.5600873 26.0699807,17.5043513 22.2222222,19.0048894 C24.5133271,22.1665795 26.0700204,25.2829229 26.9281046,28.437336 Z" id="_391043112" fill="#F4A85E"></path>
            <path d="M24,18.6666667 C22.8981341,16.6031234 22.2044178,15.6112776 20.8900312,16.0913583 C20.0137734,16.4114121 19.8652445,17.5661445 20.4444444,19.5555556 C22.0030769,25.5583826 23.7865534,28.4062213 24.7201776,30.2222222 C25.6538017,32.0382232 27.9170446,35.2920817 29.3050878,36.2019925 C29.3050878,34.9652624 29.0182067,32.6757094 28.4444444,29.3333333 C27.6023369,25.7716762 26.04357,22.4938066 24,18.6666667 Z" id="_391042368" fill="#2264A9"></path>
        </g>
    </g>
</svg>