<?xml version="1.0" encoding="UTF-8"?>
<svg width="48px" height="48px" viewBox="0 0 48 48" version="1.1" xmlns="http://www.w3.org/2000/svg" xmlns:xlink="http://www.w3.org/1999/xlink">
    <!-- Generator: Sketch 50.2 (55047) - http://www.bohemiancoding.com/sketch -->
    <title>041_WhatsApp Messenger</title>
    <desc>Created with Sketch.</desc>
    <defs>
        <linearGradient x1="59.6369168%" y1="80.3205148%" x2="27.6328357%" y2="26.7163464%" id="linearGradient-1">
            <stop stop-color="#46C054" offset="0%"></stop>
            <stop stop-color="#41C252" offset="16.3153014%"></stop>
            <stop stop-color="#40C252" offset="31.2269766%"></stop>
            <stop stop-color="#38CF62" offset="100%"></stop>
        </linearGradient>
    </defs>
    <g id="041_WhatsApp-Messenger" stroke="none" stroke-width="1" fill="none" fill-rule="evenodd">
        <g id="Group">
            <path d="M0.789648262,47.2249574 L13.4710556,43.2022136 L13.6574712,43.3025868 C16.9944376,45.0993364 20.7197985,46.0388169 24.5611562,46.0388169 C37.2144218,46.0388169 47.5,35.8273978 47.5,23.2694084 C47.5,10.711242 37.2145637,0.5 24.5611413,0.5 C11.8989858,0.499622154 1.61110372,10.708522 1.61110372,23.2690905 C1.61110372,27.3649531 2.71143863,31.3406404 4.79328993,34.828313 L4.91144248,35.026251 L0.789648262,47.2249574 Z" id="Combined-Shape" stroke="#DDDDDD" fill="#FFFFFF" fill-rule="nonzero"></path>
            <path d="M5.2173913,23.4781007 C5.2173913,27.6998408 6.5788796,31.6150636 8.89328162,34.7929792 L6.48794294,41.9652291 L13.9079261,39.5938033 C16.9597475,41.6138711 20.6016967,42.7826087 24.5273426,42.7826087 C35.1694934,42.7826087 43.826087,34.1232531 43.826087,23.478421 C43.826087,12.8332686 35.1694934,4.17423333 24.5273426,4.17423333 C13.8739849,4.17391304 5.2173913,12.8329483 5.2173913,23.4781007 Z" id="Combined-Shape" fill="url(#linearGradient-1)" fill-rule="nonzero"></path>
            <path d="M18.6320217,13.5743945 C18.2390569,12.6074164 17.941224,12.5707963 17.3458941,12.5459222 C17.1198328,12.5309567 16.8933889,12.5228921 16.6668618,12.5217391 C15.8923615,12.5217391 15.082565,12.7542423 14.5941324,13.2683056 C13.9988025,13.8925748 12.5217391,15.3490878 12.5217391,18.3360448 C12.5217391,21.3230018 14.6418663,24.2118446 14.9275978,24.6160476 C15.2254308,25.0195598 19.060955,31.2380685 25.0162703,33.7724563 C29.6733564,35.7554696 31.0552881,35.5716781 32.1151836,35.339175 C33.6635118,34.9964661 35.6051409,33.8208224 36.0935736,32.4012751 C36.5820062,30.9810368 36.5820062,29.7691185 36.4388044,29.5120868 C36.2959386,29.2550551 35.9026377,29.1085747 35.3073079,28.8021404 C34.7119781,28.4960516 31.8173506,27.0271017 31.2694186,26.8312186 C30.7332519,26.6232441 30.2212885,26.6968298 29.8165583,27.2844788 C29.2447593,28.104631 28.6850618,28.9372203 28.2322616,29.4388466 C27.8749292,29.8306127 27.2910286,29.8796698 26.8029321,29.6713498 C26.1477667,29.390135 24.3137071,28.7285547 22.0503781,26.6598642 C20.2993486,25.0565253 19.1083528,23.0614205 18.763122,22.4616798 C18.4175551,21.8498477 18.7274896,21.4943563 19.0011195,21.1640844 C19.2989525,20.7844099 19.5846839,20.5152866 19.8825169,20.1601407 C20.1803499,19.8053402 20.3470826,19.6215487 20.5376823,19.2052541 C20.7403835,18.8013965 20.5971816,18.3851019 20.4543159,18.0790131 C20.3114502,17.7729243 19.1204544,14.7859672 18.6320217,13.5743945 Z" id="Shape" fill="#FFFFFF"></path>
        </g>
    </g>
</svg>