<?xml version="1.0" encoding="UTF-8"?>
<svg width="48px" height="48px" viewBox="0 0 48 48" version="1.1" xmlns="http://www.w3.org/2000/svg" xmlns:xlink="http://www.w3.org/1999/xlink">
    <!-- Generator: Sketch 50.2 (55047) - http://www.bohemiancoding.com/sketch -->
    <title>221_Bing</title>
    <desc>Created with Sketch.</desc>
    <defs></defs>
    <g id="221_Bing" stroke="none" stroke-width="1" fill="none" fill-rule="evenodd">
        <g id="Group" transform="translate(5.000000, 0.000000)" fill="#F4BD27" fill-rule="nonzero">
            <g id="bing-10">
                <polyline id="Shape" points="14.4810352 12.4367441 19.4445469 23.0342577 26.7789844 26.3009507 0.323730469 40.0060003 11.1635977 30.491384 11.1635977 3.36749733 0 0 0 40.3415649 11.0951953 48 39 31.633384 39 19.8349178 14.4810352 12.4367441"></polyline>
            </g>
        </g>
    </g>
</svg>