<?xml version="1.0" encoding="UTF-8"?>
<svg width="48px" height="48px" viewBox="0 0 48 48" version="1.1" xmlns="http://www.w3.org/2000/svg" xmlns:xlink="http://www.w3.org/1999/xlink">
    <!-- Generator: Sketch 50.2 (55047) - http://www.bohemiancoding.com/sketch -->
    <title>278_Service Echo</title>
    <desc>Created with Sketch.</desc>
    <defs></defs>
    <g id="278_Service-Echo" stroke="none" stroke-width="1" fill="none" fill-rule="evenodd">
        <g id="Group" transform="translate(0.000000, 10.000000)" stroke-width="2">
            <path d="M0.314372854,20.1793591 L1.71359696,18.800054 M4.85602759,15.702358 L18.7136714,2.04198728 L29.4251561,12.5608638 L41.7614524,0" id="Path-13" stroke="#8BCE0C"></path>
            <polyline id="Path-13-Copy" stroke="#0087A0" points="4.20479891 24.2449501 15.4730299 12.9560391 29.8296879 27.4344066 46.8357728 10.1538462"></polyline>
            <path d="M18.8767702,8.87641409 L29.5844197,19.7506782" id="Path-13-Copy-2" stroke="#8BCE0C"></path>
            <path d="M33.1338472,16.0736877 L47.7461395,1.69083215" id="Path" stroke="#0087A0"></path>
            <path d="M16.8292433,18.9231449 L12.0266679,23.5927106 M9.32072871,26.2237075 L7.76685941,27.7345416" id="Path-14" stroke="#0087A0"></path>
        </g>
    </g>
</svg>