<?xml version="1.0" encoding="UTF-8"?>
<svg width="48px" height="48px" viewBox="0 0 48 48" version="1.1" xmlns="http://www.w3.org/2000/svg" xmlns:xlink="http://www.w3.org/1999/xlink">
    <!-- Generator: Sketch 50.2 (55047) - http://www.bohemiancoding.com/sketch -->
    <title>047_Baidu</title>
    <desc>Created with Sketch.</desc>
    <defs></defs>
    <g id="047_Baidu" stroke="none" stroke-width="1" fill="none" fill-rule="evenodd">
        <g id="Group" transform="translate(1.000000, 0.000000)" fill-rule="nonzero">
            <path d="M7.11509425,26.8546819 C12.6800901,25.7099986 11.9203784,19.335522 11.7573779,17.9433396 C11.4830775,15.7949099 8.84562845,12.0432362 5.26679756,12.3429851 C0.760946072,12.7272962 0.103199464,18.9587733 0.103199464,18.9587733 C-0.507154921,21.8442003 1.55943322,28.0028027 7.11509425,26.8546819 M16.427732,15.147632 C19.4996097,15.147632 21.9826749,11.7582694 21.9826749,7.57072225 C21.9826749,3.3838626 19.4996097,0 16.427732,0 C13.3544181,0 10.8648903,3.3838626 10.8648903,7.57140975 C10.8648903,11.7582694 13.3544181,15.147632 16.427732,15.147632 M29.6717041,14.6247911 C33.7833384,15.1404142 36.4186332,10.9404921 36.9456922,7.75806622 C37.4842402,4.57976537 34.8281215,0.883091424 31.9228346,0.24853125 C29.0053407,-0.393591397 25.3633202,4.07789221 25.0351649,6.99494402 C24.6344852,10.5637434 25.5643781,14.1208554 29.6717041,14.6247911 M46.9784162,19.971459 C46.9784162,18.4493395 45.662205,13.8609814 40.7599822,13.8609814 C35.8491426,13.8609814 35.1992947,18.1908405 35.1992947,21.2502043 C35.1992947,24.1706936 35.4534893,28.2427411 41.5527248,28.1162416 C47.6462157,27.9869921 46.9784162,21.5045783 46.9784162,19.971459 M40.7599822,33.3329725 C40.7599822,33.3329725 34.4036798,28.6263647 30.6934432,23.5354459 C25.6562243,16.0293484 18.5078974,19.0866497 16.1181805,22.8981357 C13.7356442,26.7192467 10.0318702,29.1323629 9.50193893,29.7731105 C8.96698126,30.4001082 1.82439883,34.0954072 3.40916604,40.8425075 C4.99752357,47.5854827 10.5675459,47.4576082 10.5675459,47.4576082 C10.5675459,47.4576082 14.6727177,47.8419193 19.4334819,46.8223605 C24.204299,45.8055518 28.3087527,47.0719221 28.3087527,47.0719221 C28.3087527,47.0719221 39.4373083,50.6448465 42.4775912,43.7698717 C45.5236186,36.9010844 40.7599822,33.3329725 40.7599822,33.3329725" id="Shape" fill="#1C6AF1"></path>
            <path d="M18.6072137,26 L18.6072137,30.5851142 L14.6604979,30.5851142 C14.6604979,30.5851142 10.7159879,30.8948252 9.33522558,35.1263817 C8.8536498,37.9520593 9.76018864,39.6161467 9.91826313,39.9724883 C10.0778081,40.327438 11.3526973,42.3938017 14.5538896,43 L21.9598634,43 L21.9598634,26.0494146 L18.6072137,26 Z M18.54766,40.2181692 L15.5640959,40.2181692 C15.5640959,40.2181692 13.4856001,40.1158601 12.8525669,37.8511422 C12.5261247,36.8468435 12.9010921,35.6873414 13.0657836,35.2314747 C13.2165058,34.774912 13.9142393,33.7198068 15.3530848,33.3140506 L18.5469248,33.3140506 L18.54766,40.2181692 Z M23.7751468,30.9964382 L23.7751468,39.9209858 C23.7751468,39.9209858 23.9295451,42.143249 27.238081,42.9519774 L35.7608696,42.9519774 L35.7608696,30.9964382 L32.0825129,30.9964382 L32.0825129,39.9724883 L28.5717886,39.9724883 C28.5717886,39.9724883 27.4498273,39.8186768 27.2395515,38.9640138 L27.2395515,30.9435438 L23.7751468,30.9964382 Z" id="Shape" fill="#FFFFFF"></path>
        </g>
    </g>
</svg>