<?xml version="1.0" encoding="UTF-8"?>
<svg width="48px" height="48px" viewBox="0 0 48 48" version="1.1" xmlns="http://www.w3.org/2000/svg" xmlns:xlink="http://www.w3.org/1999/xlink">
    <!-- Generator: Sketch 50.2 (55047) - http://www.bohemiancoding.com/sketch -->
    <title>140_QQ</title>
    <desc>Created with Sketch.</desc>
    <defs></defs>
    <g id="140_QQ" stroke="none" stroke-width="1" fill="none" fill-rule="evenodd">
        <g id="Group" transform="translate(4.000000, 0.000000)">
            <path d="M39.7879819,35.2154015 C39.5020862,31.5892031 37.6093878,27.5521649 36.8320635,25.5240733 L34.8311565,20.3040733 C34.7675737,18.1327145 35.4030385,13.1373252 32.066712,6.8886229 C28.7303855,0.639829008 22.0258957,0.0765618321 20.7866213,0.0124396947 C19.5474376,-0.0517740458 11.7943311,-0.115987786 7.98136054,6.68718779 C4.16829932,13.4902718 5.19578231,20.3040733 5.19578231,20.3040733 L3.06435374,25.5635542 L3.06435374,25.5636458 C3.06435374,25.5637374 2.07115646,27.9630962 1.21328798,30.8832183 C0.355328798,33.8034321 -0.502539683,38.3923786 0.355328798,39.322974 C1.21328798,40.2535695 4.32721088,35.054913 4.61319728,34.5735389 C4.61319728,34.5735389 4.83560091,37.0605618 5.42344671,38.360226 C5.89337868,39.3991878 7.02453515,41.9961344 9.30952381,44.0292641 C8.21265306,44.3886229 5.57519274,45.344226 5.19079365,46.3399511 C4.70362812,47.6022412 5.57210884,47.7519206 7.05501134,47.8374779 C8.53773243,47.9231267 15.6553741,48.1155847 19.0658957,47.6343023 C19.1028118,47.6290809 19.1372789,47.6238595 19.1720181,47.6186382 C19.5045351,47.6302718 19.8209977,47.6343023 20.1193197,47.6343023 C20.3119728,47.6343023 20.5315646,47.6315542 20.7724717,47.6238595 C20.7962358,47.6273405 20.8188209,47.6308214 20.8435828,47.6343023 C24.2540136,48.1155847 31.3716553,47.9231267 32.8544671,47.8374779 C34.3371882,47.7519206 35.2057596,47.6022412 34.7185034,46.3399511 C34.3285714,45.3294779 31.6186395,44.3605008 30.5526077,44.0138748 C30.8856689,43.7153405 31.2116553,43.3948214 31.5264853,43.0454473 C35.3712925,38.7773863 35.0535601,36.0817832 35.2124717,34.5414779 C35.2124717,34.5414779 38.4538322,39.2587603 39.1526984,39.4192489 C39.8515646,39.5796458 40.0739683,38.8416 39.7879819,35.2154015" id="Fill-1" fill="#FEFEFE"></path>
            <path d="M11.2541497,45.4201099 C10.527619,45.0145832 9.88281179,44.5393466 9.30956916,44.0292092 C8.21260771,44.3885679 5.5752381,45.3442626 5.1907483,46.3399878 C4.70358277,47.6021863 5.57206349,47.7519573 7.05496599,47.8375145 C8.53777778,47.9230718 15.6553288,48.1156214 19.0658503,47.6343389 C19.1027664,47.629026 19.1371429,47.6238962 19.1718821,47.6186748 C17.0965079,47.545942 14.3762358,47.1625832 11.2541497,45.4201099" id="Fill-4" fill="#EFAA1D"></path>
            <path d="M30.5525805,44.0138565 C27.1809705,47.0360244 23.0111746,47.5524824 20.7725351,47.6238412 C20.7962993,47.6273221 20.8188844,47.6308031 20.8435556,47.634284 C24.2540771,48.1155664 31.3716281,47.9231084 32.8544399,47.8374595 C34.3372517,47.7519939 35.2058231,47.6022229 34.7185669,46.3400244 C34.3285442,45.3294595 31.6186122,44.3603908 30.5525805,44.0138565" id="Fill-6" fill="#EFAA1D"></path>
            <path d="M36.8320726,25.5240824 L34.8310748,20.3040824 C34.8310748,20.3040824 21.0620045,24.7111969 5.19570068,20.3040824 L3.06436281,25.5635634 C3.06436281,25.5635634 5.97148299,26.6044489 10.6503946,27.3628305 L10.6503946,34.4452122 C10.6503946,34.4452122 14.3680363,34.9586473 17.1643175,34.6057008 L17.1643175,28.0591053 C22.8496689,28.3558076 29.7381043,27.8991664 36.8320726,25.5240824" id="Fill-8" fill="#D92821"></path>
            <path d="M23.8609342,13.6507511 C22.421932,13.6507511 21.2554014,11.9554534 21.2554014,9.86406412 C21.2554014,7.77276641 22.421932,6.0774687 23.8609342,6.0774687 C25.2999365,6.0774687 26.4665578,7.77276641 26.4665578,9.86406412 C26.4665578,11.9554534 25.2999365,13.6507511 23.8609342,13.6507511 M16.0839728,13.6507511 C14.6449705,13.6507511 13.4784399,11.9554534 13.4784399,9.86406412 C13.4784399,7.77276641 14.6449705,6.0774687 16.0839728,6.0774687 C17.5229751,6.0774687 18.6895057,7.77276641 18.6895057,9.86406412 C18.6895057,11.9554534 17.5229751,13.6507511 16.0839728,13.6507511 M32.0667392,6.88861374 C28.7304127,0.639819847 22.0259229,0.0765526718 20.7865578,0.0124305344 C19.5473741,-0.0517832061 11.7943583,-0.115996947 7.98129705,6.68717863 C4.16832653,13.4903542 5.19571882,20.3040641 5.19571882,20.3040641 C21.1255147,24.7967359 34.831093,20.3040641 34.831093,20.3040641 C34.7676009,18.1327053 35.4030658,13.137316 32.0667392,6.88861374" id="Fill-10" fill="#646464"></path>
            <path d="M17.9904399,10.1743145 C17.9904399,11.0072611 17.4830476,11.6825588 16.8571066,11.6825588 C16.2311655,11.6825588 15.7237732,11.0072611 15.7237732,10.1743145 C15.7237732,9.34136794 16.2311655,8.66607023 16.8571066,8.66607023 C17.4830476,8.66607023 17.9904399,9.34136794 17.9904399,10.1743145" id="Fill-12" fill="#646464"></path>
            <path d="M23.8609342,9.23833282 C24.6154921,9.23879084 25.6481451,9.63149313 25.4177596,10.2491725 C25.2384399,10.7303634 24.3453787,10.0807145 24.04361,10.0370198 C23.6453333,9.97940153 23.0584853,9.94431756 22.566059,10.5379969 C22.2384399,10.9328061 21.7359456,10.8903939 21.913542,10.342974 C22.1131791,9.72767634 22.8679184,9.2376916 23.8609342,9.23833282" id="Fill-14" fill="#646464"></path>
            <path d="M10.936381,16.8277008 C10.936381,17.4694718 15.6454059,19.8441893 19.9557007,19.8121282 C24.2659955,19.7799756 29.0639093,17.4212885 29.0639093,16.731426 C29.0639093,16.0414718 25.6202812,14.8380824 19.8749751,14.8380824 C14.1297596,14.8380824 10.936381,15.8970137 10.936381,16.8277008" id="Fill-16" fill="#EFAA1D"></path>
            <path d="M39.7879819,35.2154015 C39.5020862,31.5892031 37.6093878,27.5521649 36.8320635,25.5240733 C34.9716553,26.146974 33.1257596,26.6367756 31.31161,27.016745 C31.4622676,27.8267908 31.674966,29.6037985 31.590068,32.9691115 C31.4629932,38.0072794 29.8424943,42.1147603 25.8388662,44.4893863 C21.8351474,46.8641038 14.8129252,46.3507603 11.7307483,42.4677985 C8.83324263,38.8174168 7.90163265,36.1023939 8.5923356,26.9920122 C5.13473923,26.3048061 3.06471655,25.5637374 3.06435374,25.5636458 C3.06435374,25.5637374 2.07115646,27.9630962 1.21328798,30.8832183 C0.355328798,33.8034321 -0.502539683,38.3923786 0.355328798,39.322974 C1.21328798,40.2535695 4.32721088,35.054913 4.61319728,34.5735389 C4.61319728,34.5735389 4.83560091,37.0605618 5.42344671,38.360226 C6.01129252,39.6598901 7.63179138,43.3983939 11.254195,45.4200733 C14.8765079,47.4417527 17.9586848,47.6343023 20.1193197,47.6343023 C22.2800454,47.6343023 27.6817687,47.3133252 31.5264853,43.0454473 C35.3712925,38.7773863 35.0535601,36.0817832 35.2124717,34.5414779 C35.2124717,34.5414779 38.4538322,39.2587603 39.1526984,39.4192489 C39.8515646,39.5796458 40.0739683,38.8416 39.7879819,35.2154015" id="Fill-18" fill="#646464"></path>
        </g>
    </g>
</svg>