<?xml version="1.0" encoding="UTF-8"?>
<svg width="48px" height="48px" viewBox="0 0 48 48" version="1.1" xmlns="http://www.w3.org/2000/svg" xmlns:xlink="http://www.w3.org/1999/xlink">
    <!-- Generator: Sketch 50.2 (55047) - http://www.bohemiancoding.com/sketch -->
    <title>119_Google Analytics</title>
    <desc>Created with Sketch.</desc>
    <defs>
        <linearGradient x1="-25.1079855%" y1="-25.8901104%" x2="86.9379211%" y2="90.6986095%" id="linearGradient-1">
            <stop stop-color="#DD4B00" offset="0%"></stop>
            <stop stop-color="#DD4B00" offset="2.12486384%"></stop>
            <stop stop-color="#000000" stop-opacity="0.122663272" offset="3.15795105%"></stop>
            <stop stop-color="#000000" offset="3.40948562%"></stop>
            <stop stop-color="#000000" stop-opacity="0.165883264" offset="3.60762771%"></stop>
            <stop stop-color="#000000" stop-opacity="0.0705435682" offset="3.88519228%"></stop>
            <stop stop-color="#000000" stop-opacity="0.358765354" offset="5.47921912%"></stop>
            <stop stop-color="#000000" stop-opacity="0.194028806" offset="6.41004365%"></stop>
            <stop stop-color="#291209" stop-opacity="0.21081802" offset="6.65299524%"></stop>
            <stop stop-color="#DD531F" stop-opacity="0" offset="6.7461544%"></stop>
            <stop stop-color="#582614" stop-opacity="0.155390661" offset="7.36050806%"></stop>
            <stop stop-color="#000000" stop-opacity="0.259222963" offset="7.81146211%"></stop>
            <stop stop-color="#000000" stop-opacity="0.116019482" offset="8.9665535%"></stop>
            <stop stop-color="#DB5F31" stop-opacity="0" offset="100%"></stop>
        </linearGradient>
    </defs>
    <g id="119_Google-Analytics" stroke="none" stroke-width="1" fill="none" fill-rule="evenodd">
        <g id="Group" transform="translate(1.000000, 1.000000)" fill-rule="nonzero">
            <path d="M26.0240741,38 L30.0277778,38 L30.0277778,46 L26.0240741,46 L4.0037037,46 C1.734696,46 2.62056776e-16,44.2312487 0,42 C-2.62056776e-16,39.7687513 1.734696,38 4.0037037,38 L26.0240741,38 Z" id="darkEdge" fill="#ECA30F"></path>
            <path d="M15.0138889,31 L19.0175926,31 L19.0175926,46 L15.0138889,46 L4.0037037,46 C1.70289324,46 2.57252401e-16,44.2780183 0,42 L0,35 C-2.57252401e-16,32.7219817 1.70289324,31 4.0037037,31 L15.0138889,31 Z" id="Combined-Shape" fill="#FFBE15"></path>
            <path d="M26.0240741,15 L30.0277778,15 L30.0277778,46 L26.0240741,46 L19.0175926,46 C16.6943756,46 15.0138889,44.2596648 15.0138889,42 L15.0138889,19 C15.0138889,16.7403352 16.6943756,15 19.0175926,15 L26.0240741,15 Z" id="Combined-Shape" fill="#FFBE15"></path>
            <path d="M34.0314815,46 L30.0277778,46 L30.0277778,42 L30.0277778,4 C30.0277778,1.75275757 31.7082645,0 34.0314815,0 L41.037963,0 C43.3611799,0 45.0416667,1.75275757 45.0416667,4 L45.0416667,42 C45.0416667,44.2472424 43.3611799,46 41.037963,46 L34.0314815,46 Z" id="Combined-Shape" fill="#F57200"></path>
            <path d="M30.0277778,46 L30.0277778,15 L45.0416667,31 C45.0416667,37.5547609 45.0416667,40.5294934 45.0416667,42 C45.0416667,44.0162533 43.1548593,46 41.037963,46 C40.1342149,46 36.36265,46 30.0277778,46 Z" id="Path-4" fill="url(#linearGradient-1)"></path>
        </g>
    </g>
</svg>