<?xml version="1.0" encoding="UTF-8"?>
<svg width="48px" height="48px" viewBox="0 0 48 48" version="1.1" xmlns="http://www.w3.org/2000/svg" xmlns:xlink="http://www.w3.org/1999/xlink">
    <!-- Generator: Sketch 50.2 (55047) - http://www.bohemiancoding.com/sketch -->
    <title>01_Microsoft Online Service</title>
    <desc>Created with Sketch.</desc>
    <defs></defs>
    <g id="01_Microsoft-Online-Service" stroke="none" stroke-width="1" fill="none" fill-rule="evenodd">
        <g id="Group" transform="translate(2.000000, 2.000000)">
            <rect id="Rectangle" fill="#FF4000" x="0" y="0" width="20.1666667" height="20.1666667"></rect>
            <rect id="Rectangle-Copy-2" fill="#00AEF5" x="0" y="23.8333333" width="20.1666667" height="20.1666667"></rect>
            <rect id="Rectangle-Copy" fill="#63D000" x="23.8333333" y="0" width="20.1666667" height="20.1666667"></rect>
            <rect id="Rectangle-Copy-3" fill="#FFBB00" x="23.8333333" y="23.8333333" width="20.1666667" height="20.1666667"></rect>
        </g>
    </g>
</svg>