<?xml version="1.0" encoding="UTF-8"?>
<svg width="48px" height="48px" viewBox="0 0 48 48" version="1.1" xmlns="http://www.w3.org/2000/svg" xmlns:xlink="http://www.w3.org/1999/xlink">
    <!-- Generator: Sketch 50.2 (55047) - http://www.bohemiancoding.com/sketch -->
    <title>100_Yelp</title>
    <desc>Created with Sketch.</desc>
    <defs></defs>
    <g id="100_Yelp" stroke="none" stroke-width="1" fill="none" fill-rule="evenodd">
        <path d="M8.25344747,5.38119845 C12.001298,1.79474665 16.4521303,-0.792032018 23.4329021,0.221240983 L24.2092776,22.4537263 C23.9492535,23.5311398 23.0656807,23.7995183 22.2720883,23.2336836 L8.25344747,5.38119845 Z M36.3783584,11.9521025 C39.4880258,13.8886954 42.9681534,17.7595335 43.9542157,23.4600136 L29.0068296,25.872929 C28.1447773,25.5460768 27.496472,25.0066272 27.5791453,23.7373032 L36.3783584,11.9521025 Z M29.4534224,31.0339595 C28.489075,31.2499481 27.979169,31.8277435 28.2039044,32.9916817 L35.7640643,45.752222 C39.1259377,44.2142167 42.4815321,40.6243202 44,35.3052112 L29.4534224,31.0339595 Z M21.6889339,32.8135173 C22.6888623,32.6843937 23.6228614,32.6650904 23.9200667,33.7032962 L24.3663979,47.9408016 C19.4546616,48.3031302 15.3586702,47.0387625 12.585975,43.1355783 L21.6889339,32.8135173 Z M19.7254429,26.2287362 C20.4396774,27.0846039 20.840486,27.9850778 19.9041323,29.0762373 L6.16021839,33.8814606 C4.53997856,29.4208277 4.68831959,25.2317457 6.16021839,21.2458702 L19.7254429,26.2287362 Z" id="Shape" fill="#FF0000" fill-rule="nonzero"></path>
    </g>
</svg>